{
    "version": "1.0",
    "sources": ["models"],
    "maven": {
        "dependencies": [
            "software.amazon.smithy:smithy-openapi:1.45.0",
            "software.amazon.smithy:smithy-aws-traits:1.45.0"
        ]
        },
    "projections": {
        "openapi-conversion": {
            "plugins": {
                "openapi": {
                    "service": "eu.europa.ec.snet#Sys",
                    "protocol": "aws.protocols#restJson1",
                    "version": "3.1.0",
                    "tags": true
                }
            }
        }
    }
}


